<svg width="15" height="14" viewBox="0 0 15 14" fill="none" xmlns="http://www.w3.org/2000/svg">
<rect x="7" width="1.6" height="14" rx="0.8" fill="white"/>
<rect x="7" width="1.6" height="14" rx="0.8" fill="white"/>
<rect x="0.799988" y="7.79999" width="1.6" height="14" rx="0.8" transform="rotate(-90 0.799988 7.79999)" fill="white"/>
<rect x="0.799988" y="7.79999" width="1.6" height="14" rx="0.8" transform="rotate(-90 0.799988 7.79999)" fill="white"/>
</svg>
