<svg width="19" height="21" viewBox="0 0 19 21" fill="none" xmlns="http://www.w3.org/2000/svg">
<path fill-rule="evenodd" clip-rule="evenodd" d="M6.92347 3.40227C6.46567 4.21185 6.33333 5.30157 6.33333 6.3C6.33333 6.8799 5.86074 7.35 5.27778 7.35C4.69481 7.35 4.22222 6.8799 4.22222 6.3C4.22222 5.19843 4.35377 3.66315 5.08348 2.37273C5.4583 1.70988 5.99617 1.10263 6.75229 0.666603C7.5076 0.23105 8.42227 0 9.5 0C10.5777 0 11.4924 0.23105 12.2477 0.666603C13.0038 1.10263 13.5417 1.70987 13.9165 2.37272C14.6462 3.66314 14.7778 5.19841 14.7778 6.29997C14.7778 6.87987 14.3053 7.34999 13.7223 7.35C13.1393 7.35001 12.6667 6.87992 12.6667 6.30003C12.6667 5.30159 12.5343 4.21186 12.0765 3.40228C11.8576 3.01513 11.5708 2.70362 11.1889 2.4834C10.8062 2.2627 10.2695 2.1 9.5 2.1C8.73051 2.1 8.19379 2.2627 7.81108 2.4834C7.42918 2.70362 7.14239 3.01512 6.92347 3.40227Z" fill="#00B074"/>
<path d="M11.6112 12.6C11.6112 13.7598 10.666 14.7 9.50006 14.7C8.33413 14.7 7.38895 13.7598 7.38895 12.6C7.38895 11.4402 8.33413 10.5 9.50006 10.5C10.666 10.5 11.6112 11.4402 11.6112 12.6Z" fill="#00B074"/>
<path fill-rule="evenodd" clip-rule="evenodd" d="M9.5 11.55C10.083 11.55 10.5556 12.0201 10.5556 12.6V15.75C10.5556 16.3299 10.083 16.8 9.5 16.8C8.91703 16.8 8.44444 16.3299 8.44444 15.75V12.6C8.44444 12.0201 8.91703 11.55 9.5 11.55Z" fill="#00B074"/>
<path fill-rule="evenodd" clip-rule="evenodd" d="M0 9.45C0 7.7103 1.41776 6.3 3.16667 6.3H15.8333C17.5822 6.3 19 7.7103 19 9.45V17.85C19 19.5897 17.5822 21 15.8333 21H3.16667C1.41777 21 0 19.5897 0 17.85V9.45ZM3.16667 8.4C2.5837 8.4 2.11111 8.8701 2.11111 9.45V17.85C2.11111 18.4299 2.5837 18.9 3.16667 18.9H15.8333C16.4163 18.9 16.8889 18.4299 16.8889 17.85V9.45C16.8889 8.8701 16.4163 8.4 15.8333 8.4H3.16667Z" fill="#00B074"/>
</svg>
